<?xml version="1.0" encoding="UTF-8" standalone="no"?>
<svg
   xmlns:dc="http://purl.org/dc/elements/1.1/"
   xmlns:cc="http://creativecommons.org/ns#"
   xmlns:rdf="http://www.w3.org/1999/02/22-rdf-syntax-ns#"
   xmlns:svg="http://www.w3.org/2000/svg"
   xmlns="http://www.w3.org/2000/svg"
   xmlns:sodipodi="http://sodipodi.sourceforge.net/DTD/sodipodi-0.dtd"
   xmlns:inkscape="http://www.inkscape.org/namespaces/inkscape"
   sodipodi:docname="das-Problem-mit-der-alten-Generation.svg"
   inkscape:version="1.0 (4035a4fb49, 2020-05-01)"
   id="svg8"
   version="1.1"
   viewBox="0 0 297 210"
   height="210mm"
   width="297mm">
  <defs
     id="defs2">
    <marker
       inkscape:stockid="Arrow1Mend"
       orient="auto"
       refY="0.0"
       refX="0.0"
       id="marker1820"
       style="overflow:visible;"
       inkscape:isstock="true">
      <path
         id="path1818"
         d="M 0.0,0.0 L 5.0,-5.0 L -12.5,0.0 L 5.0,5.0 L 0.0,0.0 z "
         style="fill-rule:evenodd;stroke:#000000;stroke-width:1pt;stroke-opacity:1;fill:#000000;fill-opacity:1"
         transform="scale(0.4) rotate(180) translate(10,0)" />
    </marker>
    <marker
       inkscape:stockid="Arrow1Mend"
       orient="auto"
       refY="0.0"
       refX="0.0"
       id="marker1810"
       style="overflow:visible;"
       inkscape:isstock="true">
      <path
         id="path1808"
         d="M 0.0,0.0 L 5.0,-5.0 L -12.5,0.0 L 5.0,5.0 L 0.0,0.0 z "
         style="fill-rule:evenodd;stroke:#000000;stroke-width:1pt;stroke-opacity:1;fill:#000000;fill-opacity:1"
         transform="scale(0.4) rotate(180) translate(10,0)" />
    </marker>
    <marker
       inkscape:stockid="Arrow1Mend"
       orient="auto"
       refY="0.0"
       refX="0.0"
       id="marker1800"
       style="overflow:visible;"
       inkscape:isstock="true">
      <path
         id="path1798"
         d="M 0.0,0.0 L 5.0,-5.0 L -12.5,0.0 L 5.0,5.0 L 0.0,0.0 z "
         style="fill-rule:evenodd;stroke:#000000;stroke-width:1pt;stroke-opacity:1;fill:#000000;fill-opacity:1"
         transform="scale(0.4) rotate(180) translate(10,0)" />
    </marker>
    <marker
       inkscape:stockid="Arrow1Mend"
       orient="auto"
       refY="0.0"
       refX="0.0"
       id="marker1790"
       style="overflow:visible;"
       inkscape:isstock="true">
      <path
         id="path1788"
         d="M 0.0,0.0 L 5.0,-5.0 L -12.5,0.0 L 5.0,5.0 L 0.0,0.0 z "
         style="fill-rule:evenodd;stroke:#000000;stroke-width:1pt;stroke-opacity:1;fill:#000000;fill-opacity:1"
         transform="scale(0.4) rotate(180) translate(10,0)" />
    </marker>
    <marker
       inkscape:stockid="Arrow1Mend"
       orient="auto"
       refY="0.0"
       refX="0.0"
       id="marker1780"
       style="overflow:visible;"
       inkscape:isstock="true">
      <path
         id="path1778"
         d="M 0.0,0.0 L 5.0,-5.0 L -12.5,0.0 L 5.0,5.0 L 0.0,0.0 z "
         style="fill-rule:evenodd;stroke:#000000;stroke-width:1pt;stroke-opacity:1;fill:#000000;fill-opacity:1"
         transform="scale(0.4) rotate(180) translate(10,0)" />
    </marker>
    <marker
       inkscape:stockid="Arrow1Mend"
       orient="auto"
       refY="0.0"
       refX="0.0"
       id="marker1770"
       style="overflow:visible;"
       inkscape:isstock="true">
      <path
         id="path1768"
         d="M 0.0,0.0 L 5.0,-5.0 L -12.5,0.0 L 5.0,5.0 L 0.0,0.0 z "
         style="fill-rule:evenodd;stroke:#000000;stroke-width:1pt;stroke-opacity:1;fill:#000000;fill-opacity:1"
         transform="scale(0.4) rotate(180) translate(10,0)" />
    </marker>
    <marker
       inkscape:isstock="true"
       style="overflow:visible;"
       id="marker1572"
       refX="0.0"
       refY="0.0"
       orient="auto"
       inkscape:stockid="Arrow1Lend">
      <path
         transform="scale(0.8) rotate(180) translate(12.5,0)"
         style="fill-rule:evenodd;stroke:#000000;stroke-width:1pt;stroke-opacity:1;fill:#000000;fill-opacity:1"
         d="M 0.0,0.0 L 5.0,-5.0 L -12.5,0.0 L 5.0,5.0 L 0.0,0.0 z "
         id="path1570" />
    </marker>
    <marker
       inkscape:stockid="Arrow1Lend"
       orient="auto"
       refY="0"
       refX="0"
       id="Arrow1Lend-6"
       style="overflow:visible"
       inkscape:isstock="true">
      <path
         id="path1014-0"
         d="M 0,0 5,-5 -12.5,0 5,5 Z"
         style="fill:#000000;fill-opacity:1;fill-rule:evenodd;stroke:#000000;stroke-width:1pt;stroke-opacity:1"
         transform="matrix(-0.8,0,0,-0.8,-10,0)" />
    </marker>
    <marker
       inkscape:isstock="true"
       style="overflow:visible"
       id="Arrow1Lend-6-2"
       refX="0"
       refY="0"
       orient="auto"
       inkscape:stockid="Arrow1Lend">
      <path
         transform="matrix(-0.8,0,0,-0.8,-10,0)"
         style="fill:#000000;fill-opacity:1;fill-rule:evenodd;stroke:#000000;stroke-width:1pt;stroke-opacity:1"
         d="M 0,0 5,-5 -12.5,0 5,5 Z"
         id="path1014-0-6" />
    </marker>
    <marker
       inkscape:isstock="true"
       style="overflow:visible"
       id="marker1439-8"
       refX="0"
       refY="0"
       orient="auto"
       inkscape:stockid="Arrow1Lend">
      <path
         transform="matrix(-0.8,0,0,-0.8,-10,0)"
         style="fill:#000000;fill-opacity:1;fill-rule:evenodd;stroke:#000000;stroke-width:1pt;stroke-opacity:1"
         d="M 0,0 5,-5 -12.5,0 5,5 Z"
         id="path1437-7" />
    </marker>
  </defs>
  <sodipodi:namedview
     inkscape:window-maximized="1"
     inkscape:window-y="0"
     inkscape:window-x="0"
     inkscape:window-height="1016"
     inkscape:window-width="1920"
     showgrid="false"
     inkscape:document-rotation="0"
     inkscape:current-layer="layer1"
     inkscape:document-units="mm"
     inkscape:cy="233.31055"
     inkscape:cx="1570.5488"
     inkscape:zoom="0.34782793"
     inkscape:pageshadow="2"
     inkscape:pageopacity="0.0"
     borderopacity="1.0"
     bordercolor="#666666"
     pagecolor="#ffffff"
     id="base" />
  <metadata
     id="metadata5">
    <rdf:RDF>
      <cc:Work
         rdf:about="">
        <dc:format>image/svg+xml</dc:format>
        <dc:type
           rdf:resource="http://purl.org/dc/dcmitype/StillImage" />
        <dc:title></dc:title>
      </cc:Work>
    </rdf:RDF>
  </metadata>
  <g
     id="layer1"
     inkscape:groupmode="layer"
     inkscape:label="Layer 1">
    <g
       inkscape:export-ydpi="70.940002"
       inkscape:export-xdpi="70.940002"
       inkscape:export-filename="/home/marc/path1568.png"
       transform="translate(-24.817976,-14.983119)"
       id="g40">
      <rect
         style="fill:#000000;stroke:#000000;stroke-width:0.345038"
         id="rect10"
         width="145.98746"
         height="13.373201"
         x="27.968456"
         y="33.053959" />
      <text
         xml:space="preserve"
         style="font-style:normal;font-weight:normal;font-size:10.5833px;line-height:1.25;font-family:sans-serif;fill:#ffffff;fill-opacity:1;stroke:none;stroke-width:0.264583"
         x="69.199364"
         y="43.686043"
         id="text14"><tspan
           sodipodi:role="line"
           id="tspan12"
           x="69.199364"
           y="43.686043"
           style="font-style:italic;font-variant:normal;font-weight:normal;font-stretch:normal;font-family:sans-serif;-inkscape-font-specification:'sans-serif Italic';fill:#ffffff;stroke-width:0.264583">Machtmittel</tspan></text>
    </g>
    <g
       inkscape:export-ydpi="70.940002"
       inkscape:export-xdpi="70.940002"
       inkscape:export-filename="/home/marc/path1568.png"
       transform="translate(153.28183,-70.479995)"
       id="g45">
      <rect
         y="88.550835"
         x="27.968456"
         height="13.373201"
         width="145.98746"
         id="rect10-3"
         style="fill:#000000;stroke:#000000;stroke-width:0.345038" />
      <text
         id="text14-6"
         y="99.182915"
         x="37.679428"
         style="font-style:normal;font-weight:normal;font-size:10.5833px;line-height:1.25;font-family:sans-serif;fill:#ffffff;fill-opacity:1;stroke:none;stroke-width:0.264583"
         xml:space="preserve"><tspan
           style="font-style:italic;font-variant:normal;font-weight:normal;font-stretch:normal;font-family:sans-serif;-inkscape-font-specification:'sans-serif Italic';fill:#ffffff;stroke-width:0.264583"
           y="99.182915"
           x="37.679428"
           id="tspan12-7"
           sodipodi:role="line">Machtmittel-Missbrauch</tspan></text>
    </g>
    <g
       inkscape:export-ydpi="70.940002"
       inkscape:export-xdpi="70.940002"
       inkscape:export-filename="/home/marc/path1568.png"
       transform="translate(4.096843)"
       id="g184">
      <g
         transform="translate(327.2848,-58.195769)"
         id="g45-2">
        <rect
           y="88.550835"
           x="27.968456"
           height="13.373201"
           width="145.98746"
           id="rect10-3-9"
           style="fill:#000000;stroke:#000000;stroke-width:0.345038" />
        <text
           id="text14-6-1"
           y="99.182915"
           x="37.679428"
           style="font-style:normal;font-weight:normal;font-size:10.5833px;line-height:1.25;font-family:sans-serif;fill:#ffffff;fill-opacity:1;stroke:none;stroke-width:0.264583"
           xml:space="preserve"><tspan
             style="font-style:italic;font-variant:normal;font-weight:normal;font-stretch:normal;font-family:sans-serif;-inkscape-font-specification:'sans-serif Italic';fill:#ffffff;stroke-width:0.264583"
             y="99.182915"
             x="37.679428"
             id="tspan12-7-2"
             sodipodi:role="line">Verhaltenssucht</tspan></text>
      </g>
      <g
         id="g171">
        <g
           id="g45-5"
           transform="translate(327.2848,-82.764221)">
          <rect
             style="fill:#000000;stroke:#000000;stroke-width:0.345038"
             id="rect10-3-3"
             width="145.98746"
             height="13.373201"
             x="27.968456"
             y="88.550835" />
          <text
             xml:space="preserve"
             style="font-style:normal;font-weight:normal;font-size:10.5833px;line-height:1.25;font-family:sans-serif;fill:#ffffff;fill-opacity:1;stroke:none;stroke-width:0.264583"
             x="37.679428"
             y="99.182915"
             id="text14-6-5"><tspan
               sodipodi:role="line"
               id="tspan12-7-6"
               x="37.679428"
               y="99.182915"
               style="font-style:italic;font-variant:normal;font-weight:normal;font-stretch:normal;font-family:sans-serif;-inkscape-font-specification:'sans-serif Italic';fill:#ffffff;stroke-width:0.264583">Zwnagsneurose, Angst</tspan></text>
        </g>
        <text
           id="text95"
           y="19.182264"
           x="477.01126"
           style="font-style:normal;font-weight:normal;font-size:3.52778px;line-height:1.25;font-family:sans-serif;fill:#ffffff;fill-opacity:1;stroke:none;stroke-width:0.264583"
           xml:space="preserve"><tspan
             style="font-size:3.52778px;fill:#ffffff;stroke-width:0.264583"
             y="19.182264"
             x="477.01126"
             id="tspan93"
             sodipodi:role="line">z.B. vor Knast</tspan></text>
      </g>
    </g>
    <g
       inkscape:export-ydpi="70.940002"
       inkscape:export-xdpi="70.940002"
       inkscape:export-filename="/home/marc/path1568.png"
       id="g45-7"
       transform="translate(509.48142,-70.479995)">
      <rect
         style="fill:#000000;stroke:#000000;stroke-width:0.345038"
         id="rect10-3-0"
         width="145.98746"
         height="13.373201"
         x="27.968456"
         y="88.550835" />
      <text
         xml:space="preserve"
         style="font-style:normal;font-weight:normal;font-size:10.5833px;line-height:1.25;font-family:sans-serif;fill:#ffffff;fill-opacity:1;stroke:none;stroke-width:0.264583"
         x="37.679428"
         y="99.182915"
         id="text14-6-9"><tspan
           sodipodi:role="line"
           id="tspan12-7-3"
           x="37.679428"
           y="99.182915"
           style="font-style:italic;font-variant:normal;font-weight:normal;font-stretch:normal;font-family:sans-serif;-inkscape-font-specification:'sans-serif Italic';fill:#ffffff;stroke-width:0.264583">Macht-Erhalt bis Mord</tspan></text>
    </g>
    <path
       inkscape:export-ydpi="70.940002"
       inkscape:export-xdpi="70.940002"
       inkscape:export-filename="/home/marc/path1568.png"
       id="path186"
       d="m 148.40013,25.084061 h 32.38848"
       style="fill:none;stroke:#000000;stroke-width:1;stroke-linecap:butt;stroke-linejoin:miter;stroke-opacity:1;stroke-miterlimit:4;stroke-dasharray:none;marker-end:url(#marker1820)" />
    <path
       inkscape:export-ydpi="70.940002"
       inkscape:export-xdpi="70.940002"
       inkscape:export-filename="/home/marc/path1568.png"
       sodipodi:nodetypes="cc"
       style="fill:none;stroke:#000000;stroke-width:1;stroke-linecap:butt;stroke-linejoin:miter;stroke-miterlimit:4;stroke-dasharray:none;stroke-opacity:1;marker-end:url(#marker1810)"
       d="M 327.05262,24.347045 358.73284,12.60505"
       id="path186-6" />
    <path
       inkscape:export-ydpi="70.940002"
       inkscape:export-xdpi="70.940002"
       inkscape:export-filename="/home/marc/path1568.png"
       id="path186-6-1"
       d="m 327.05262,24.347045 31.68022,11.741996"
       style="fill:none;stroke:#000000;stroke-width:1;stroke-linecap:butt;stroke-linejoin:miter;stroke-miterlimit:4;stroke-dasharray:none;stroke-opacity:1;marker-end:url(#marker1800)"
       sodipodi:nodetypes="cc" />
    <path
       inkscape:export-ydpi="70.940002"
       inkscape:export-xdpi="70.940002"
       inkscape:export-filename="/home/marc/path1568.png"
       id="path1435"
       d="m 504.99816,12.775893 32.01641,11.768966"
       style="fill:none;stroke:#000000;stroke-width:1;stroke-linecap:butt;stroke-linejoin:miter;stroke-opacity:1;stroke-miterlimit:4;stroke-dasharray:none;marker-end:url(#marker1790)" />
    <path
       inkscape:export-ydpi="70.940002"
       inkscape:export-xdpi="70.940002"
       inkscape:export-filename="/home/marc/path1568.png"
       style="fill:none;stroke:#000000;stroke-width:1;stroke-linecap:butt;stroke-linejoin:miter;stroke-miterlimit:4;stroke-dasharray:none;stroke-opacity:1;marker-end:url(#marker1780)"
       d="M 504.99816,36.313825 537.01457,24.544859"
       id="path1435-9" />
    <path
       inkscape:export-ydpi="70.940002"
       inkscape:export-xdpi="70.940002"
       inkscape:export-filename="/home/marc/path1568.png"
       sodipodi:nodetypes="ccccc"
       id="path1568"
       d="M 683.30997,25.105603 H 718.6183 V 71.583727 H 240.87181 l 0,-39.317864"
       style="fill:none;stroke:#000000;stroke-width:1;stroke-linecap:butt;stroke-linejoin:miter;stroke-miterlimit:4;stroke-dasharray:none;stroke-opacity:1;marker-end:url(#marker1770)" />
  </g>
</svg>
